<?xml version="1.0" encoding="UTF-8"?>
<svg xmlns="http://www.w3.org/2000/svg"
     xmlns:xlink="http://www.w3.org/1999/xlink"
     xmlns:gadfly="http://www.gadflyjl.org/ns"
     version="1.2"
     width="141.42mm" height="100mm" viewBox="0 0 141.42 100"
     stroke="none"
     fill="#000000"
     stroke-width="0.3"
     font-size="3.88"
>
<defs>
  <marker id="arrow" markerWidth="15" markerHeight="7" refX="5" refY="3.5" orient="auto" markerUnits="strokeWidth">
    <path d="M0,0 L15,3.5 L0,7 z" stroke="context-stroke" fill="context-stroke"/>
  </marker>
</defs>
<g class="plotroot xscalable yscalable" id="img-6d325d19-1">
  <g font-size="3.88" font-family="'PT Sans','Helvetica Neue','Helvetica',sans-serif" fill="#564A55" stroke="#000000" stroke-opacity="0.000" id="img-6d325d19-2">
    <g transform="translate(77.75,88.39)">
      <g class="primitive">
        <text text-anchor="middle" dy="0.6em">Re</text>
      </g>
    </g>
  </g>
  <g class="guide xlabels" font-size="2.82" font-family="'PT Sans Caption','Helvetica Neue','Helvetica',sans-serif" fill="#6C606B" id="img-6d325d19-3">
    <g transform="translate(41.89,81.72)">
      <g class="primitive">
        <text text-anchor="middle" dy="0.6em">-10</text>
      </g>
    </g>
    <g transform="translate(59.82,81.72)">
      <g class="primitive">
        <text text-anchor="middle" dy="0.6em">-5</text>
      </g>
    </g>
    <g transform="translate(77.75,81.72)">
      <g class="primitive">
        <text text-anchor="middle" dy="0.6em">0</text>
      </g>
    </g>
    <g transform="translate(95.68,81.72)">
      <g class="primitive">
        <text text-anchor="middle" dy="0.6em">5</text>
      </g>
    </g>
    <g transform="translate(113.6,81.72)">
      <g class="primitive">
        <text text-anchor="middle" dy="0.6em">10</text>
      </g>
    </g>
  </g>
  <g clip-path="url(#img-6d325d19-4)">
    <g id="img-6d325d19-5">
      <g pointer-events="visible" fill="#000000" fill-opacity="0.000" stroke="#000000" stroke-opacity="0.000" class="guide background" id="img-6d325d19-6">
        <g transform="translate(77.75,42.86)" id="img-6d325d19-7">
          <path d="M-37.86,-37.86 L 37.86 -37.86 37.86 37.86 -37.86 37.86 z" class="primitive"/>
        </g>
      </g>
      <g class="guide ygridlines xfixed" stroke-dasharray="0.5,0.5" stroke-width="0.2" stroke="#D0D0E0" id="img-6d325d19-8">
        <g transform="translate(77.75,78.72)" id="img-6d325d19-9">
          <path fill="none" d="M-37.86,0 L 37.86 0" class="primitive"/>
        </g>
        <g transform="translate(77.75,60.79)" id="img-6d325d19-10">
          <path fill="none" d="M-37.86,0 L 37.86 0" class="primitive"/>
        </g>
        <g transform="translate(77.75,42.86)" id="img-6d325d19-11">
          <path fill="none" d="M-37.86,0 L 37.86 0" class="primitive"/>
        </g>
        <g transform="translate(77.75,24.93)" id="img-6d325d19-12">
          <path fill="none" d="M-37.86,0 L 37.86 0" class="primitive"/>
        </g>
        <g transform="translate(77.75,7)" id="img-6d325d19-13">
          <path fill="none" d="M-37.86,0 L 37.86 0" class="primitive"/>
        </g>
      </g>
      <g class="guide xgridlines yfixed" stroke-dasharray="0.5,0.5" stroke-width="0.2" stroke="#D0D0E0" id="img-6d325d19-14">
        <g transform="translate(41.89,42.86)" id="img-6d325d19-15">
          <path fill="none" d="M0,-37.86 L 0 37.86" class="primitive"/>
        </g>
        <g transform="translate(59.82,42.86)" id="img-6d325d19-16">
          <path fill="none" d="M0,-37.86 L 0 37.86" class="primitive"/>
        </g>
        <g transform="translate(77.75,42.86)" id="img-6d325d19-17">
          <path fill="none" d="M0,-37.86 L 0 37.86" class="primitive"/>
        </g>
        <g transform="translate(95.68,42.86)" id="img-6d325d19-18">
          <path fill="none" d="M0,-37.86 L 0 37.86" class="primitive"/>
        </g>
        <g transform="translate(113.6,42.86)" id="img-6d325d19-19">
          <path fill="none" d="M0,-37.86 L 0 37.86" class="primitive"/>
        </g>
      </g>
      <g class="plotpanel" id="img-6d325d19-20">
        <metadata>
          <boundingbox value="39.88901145198809mm 5.0mm 75.715mm 75.715mm"/>
          <unitbox value="-10.557763368890749 10.557763368890749 21.115526737781497 -21.115526737781497"/>
        </metadata>
        <g stroke-width="0.3" fill="#000000" fill-opacity="0.000" class="geometry" id="img-6d325d19-21">
          <g class="color_LCHab{Float32}(70.0f0,60.0f0,240.0f0)" stroke-dasharray="none" stroke="#00BFFF" id="img-6d325d19-22">
            <g transform="translate(77.75,60.59)" id="img-6d325d19-23">
              <path fill="none" d="M-0,-1.59 L 1.27 -1.07 1.79 0.2 1.27 1.47 -0 1.99 -1.27 1.47 -1.79 0.2 -1.27 -1.07 -0 -1.59" class="primitive"/>
            </g>
          </g>
        </g>
        <g stroke-width="0.3" fill="#000000" fill-opacity="0.000" class="geometry" id="img-6d325d19-24">
          <g class="color_LCHab{Float32}(70.0f0,60.0f0,240.0f0)" stroke-dasharray="none" stroke="#00BFFF" id="img-6d325d19-25">
            <g transform="translate(77.55,42.86)" id="img-6d325d19-26">
              <path fill="none" d="M-1.59,0 L -1.07 -1.27 0.2 -1.79 1.47 -1.27 1.99 0 1.47 1.27 0.2 1.79 -1.07 1.27 -1.59 0" class="primitive"/>
            </g>
          </g>
        </g>
        <g stroke-width="0.3" fill="#000000" fill-opacity="0.000" class="geometry" id="img-6d325d19-27">
          <g class="color_LCHab{Float32}(70.0f0,60.0f0,240.0f0)" stroke-dasharray="none" stroke="#00BFFF" id="img-6d325d19-28">
            <g transform="translate(62.96,51.4)" id="img-6d325d19-29">
              <path fill="none" d="M-3.14,22.51 L 13 -5.43 11.21 -8.54 -21.07 -8.54" class="primitive"/>
            </g>
          </g>
        </g>
        <g stroke-width="0.3" fill="#000000" fill-opacity="0.000" class="geometry" id="img-6d325d19-30">
          <g class="color_LCHab{Float32}(70.0f0,60.0f0,240.0f0)" stroke-dasharray="none" stroke="#00BFFF" id="img-6d325d19-31">
            <g transform="translate(92.29,46.17)" id="img-6d325d19-32">
              <path fill="none" d="M21.32,-3.31 L 1.59 -3.31 1.07 -4.58 -0.2 -5.11 -1.47 -4.58 -1.99 -3.31 -10.96 -3.31 -12.75 -0.21 3.39 27.74" class="primitive"/>
            </g>
          </g>
        </g>
        <g stroke-width="0.3" fill="#000000" fill-opacity="0.000" class="geometry" id="img-6d325d19-33">
          <g class="color_LCHab{Float32}(70.0f0,60.0f0,240.0f0)" stroke-dasharray="none" stroke="#00BFFF" id="img-6d325d19-34">
            <g transform="translate(84.69,27.2)" id="img-6d325d19-35">
              <path fill="none" d="M-24.87,-15.39 L -8.73 12.56 -5.15 12.56 -0.66 4.79 0.7 4.97 1.79 4.14 1.96 2.78 1.13 1.69 2.92 -1.42 4.28 -1.24 5.37 -2.07 5.55 -3.43 4.72 -4.52 10.99 -15.39" class="primitive"/>
            </g>
          </g>
        </g>
      </g>
    </g>
  </g>
  <g class="guide ylabels" font-size="2.82" font-family="'PT Sans Caption','Helvetica Neue','Helvetica',sans-serif" fill="#6C606B" id="img-6d325d19-36">
    <g transform="translate(38.89,78.72)" id="img-6d325d19-37">
      <g class="primitive">
        <text text-anchor="end" dy="0.35em">-10</text>
      </g>
    </g>
    <g transform="translate(38.89,60.79)" id="img-6d325d19-38">
      <g class="primitive">
        <text text-anchor="end" dy="0.35em">-5</text>
      </g>
    </g>
    <g transform="translate(38.89,42.86)" id="img-6d325d19-39">
      <g class="primitive">
        <text text-anchor="end" dy="0.35em">0</text>
      </g>
    </g>
    <g transform="translate(38.89,24.93)" id="img-6d325d19-40">
      <g class="primitive">
        <text text-anchor="end" dy="0.35em">5</text>
      </g>
    </g>
    <g transform="translate(38.89,7)" id="img-6d325d19-41">
      <g class="primitive">
        <text text-anchor="end" dy="0.35em">10</text>
      </g>
    </g>
  </g>
  <g font-size="3.88" font-family="'PT Sans','Helvetica Neue','Helvetica',sans-serif" fill="#564A55" stroke="#000000" stroke-opacity="0.000" id="img-6d325d19-42">
    <g transform="translate(29.62,40.86)" id="img-6d325d19-43">
      <g class="primitive">
        <text text-anchor="middle" dy="0.35em" transform="rotate(-90,0, 2)">Im</text>
      </g>
    </g>
  </g>
</g>
<defs>
  <clipPath id="img-6d325d19-4">
    <path d="M39.89,5 L 115.6 5 115.6 80.72 39.89 80.72" />
  </clipPath>
</defs>
</svg>
